…
**Variation Analysis**

- variance / factor analysis

**Practice Datasets**

- Microsoft’s Contoso Dataset to help with practice with transaction
  data

<!-- -->

    # A tibble: 22 × 2
       `Short Name` Description                                                   
       <chr>        <chr>                                                         
     1 YTD          Year-to-date                                                  
     2 QTD          Quarter-to-date                                               
     3 MAT          Moving annual total                                           
     4 PY           Previous year                                                 
     5 PQ           Previous quarter                                              
     6 PM           Previous month                                                
     7 PYC          Previous year complete                                        
     8 PQC          Previous quarter complete                                     
     9 PMC          Previous month complete                                       
    10 PP           Previous period; automatically selects year, quarter, or month
    # ℹ 12 more rows
…
